<?xml version="1.0" encoding="utf-8"?>
<!-- Generator: Adobe Illustrator 19.2.1, SVG Export Plug-In . SVG Version: 6.00 Build 0)  -->
<svg version="1.1" id="Слой_1" xmlns="http://www.w3.org/2000/svg" xmlns:xlink="http://www.w3.org/1999/xlink" x="0px" y="0px"
	 width="801px" height="762px" viewBox="0 0 801 762" style="enable-background:new 0 0 801 762;" xml:space="preserve" fill="#00bcd4">

<g>
	<path class="st0" d="M728.2,59H110C102.8,59,97,64.8,97,71.9v618.2c0,7.1,5.8,12.9,12.9,12.9h377c7.2,0,12.9-5.8,12.9-12.9
		c0-7.1-5.8-12.9-12.9-12.9H122.9V375.6h180.5v124.1c0,7.1,5.8,12.9,12.9,12.9c7.1,0,12.9-5.8,12.9-12.9v-271
		c0-7.2-5.8-12.9-12.9-12.9c-7.1,0-12.9,5.8-12.9,12.9v121H122.9V84.9h351.2v162c0,7.1,5.8,12.9,12.9,12.9h136.9
		c7.1,0,12.9-5.8,12.9-12.9c0-7.2-5.8-12.9-12.9-12.9H499.9V84.9h215.3v401.8H487c-7.1,0-12.9,5.8-12.9,12.9
		c0,7.1,5.8,12.9,12.9,12.9h228.2v164.6h-91.4c-7.1,0-12.9,5.8-12.9,12.9c0,7.1,5.8,12.9,12.9,12.9h104.3c7.1,0,12.9-5.8,12.9-12.9
		V71.9C741.1,64.8,735.3,59,728.2,59L728.2,59z M728.2,59"/>
</g>
</svg>
