<svg fill="#005096" xmlns="http://www.w3.org/2000/svg" viewBox="0 0 490.434 490.433">
  <path d="M472.003 58.36l-13.132-11.282c-21.798-18.732-54.554-16.644-73.799 4.697L165.39 295.359l-66.312-57.112c-21.775-18.753-54.536-16.707-73.804 4.611l-11.611 12.848C4.247 266.119-.642 279.855.068 293.886c.717 14.023 6.973 27.188 17.402 36.6l121.553 111.311c10.524 9.883 24.628 15.037 39.044 14.272 14.416-.763 27.894-7.386 37.311-18.329l262.245-304.71c9.162-10.646 13.717-24.494 12.661-38.496-1.055-14.012-7.629-27.022-18.281-36.174z"/>
</svg>
