<svg xmlns="http://www.w3.org/2000/svg" class="c-sort__icon" viewBox="0 0 113.5 186">
    <path class="c-sort__up" style="fill: #7c7c7c; margin-bottom: 4px;"
          d="M54.7 9.7L14.2 68.3c-.5.5-.5 1.5-.3 2 .3.8 1 1 1.8 1h80.9c.8 0 1.5-.5 1.8-1 .3-.3.3-.5.3-1s0-.8-.3-1.3L58 9.4c-.3-.3-1-.5-1.5-.5-.8 0-1.3.3-1.8.8z"/>
    <path d="M58.8 168.2l40.4-58.6c.5-.5.5-1.5.3-2-.3-.8-1-1-1.8-1H16.8c-.8 0-1.5.5-1.8 1-.3.3-.3.5-.3 1s0 .8.3 1.3l40.4 58.6c.3.3 1 .5 1.5.5.9 0 1.4-.3 1.9-.8z"
          class="c-sort__down" style="fill: #7c7c7c; margin-bottom: 4px;"/>
</svg>