<svg fill="#00bcd4" xmlns="http://www.w3.org/2000/svg" viewBox="0 0 510 510">
  <path d="M255 402.212l157.59 95.038-41.693-179.239L510 197.472l-183.37-15.734L255 12.75l-71.629 168.988L0 197.472l139.103 120.539L97.41 497.25"/>
</svg>
