<svg xmlns="http://www.w3.org/2000/svg" id="Слой_1" viewBox="0 0 1808 1813">
  <style>
    .st0{fill:#2DADCA;} .st1{fill:#003366;} .st2{font-family:&apos;GothamPro-Bold&apos;;} .st3{font-size:695.9998px;} .st4{fill:#FFFFFF;}
  </style>
  <circle cx="903.2" cy="906.1" r="900" class="st0"/>
  <text transform="translate(691.38 1155.842)" class="st1 st2 st3">
    2
  </text>
  <text transform="translate(682.38 1127.85)" class="st4 st2 st3">
    2
  </text>
</svg>
