<svg xmlns="http://www.w3.org/2000/svg" id="Слой_1" viewBox="0 0 1811 1811">
  <style>
    .st0{fill:#3396BF;} .st1{fill:#003366;} .st2{font-family:&apos;GothamPro-Bold&apos;;} .st3{font-size:695.9998px;} .st4{fill:#FFFFFF;}
  </style>
  <circle cx="905.2" cy="906.2" r="900" class="st0"/>
  <text transform="translate(701.57 1153.49)" class="st1 st2 st3">
    3
  </text>
  <text transform="translate(677.58 1129.503)" class="st4 st2 st3">
    3
  </text>
</svg>
