<svg xmlns="http://www.w3.org/2000/svg" id="Слой_1" viewBox="0 0 1832 1848">
  <style>
    .st0{fill:#3073AA;} .st1{fill:#003366;} .st2{font-family:&apos;GothamPro-Bold&apos;;} .st3{font-size:695.9998px;} .st4{fill:#FFFFFF;}
  </style>
  <circle cx="918.2" cy="922.2" r="900" class="st0"/>
  <text transform="translate(691.902 1174.245)" class="st1 st2 st3">
    4
  </text>
  <text transform="translate(665.9 1142.24)" class="st4 st2 st3">
    4
  </text>
</svg>
