<svg fill="#00bad4" xmlns="http://www.w3.org/2000/svg" id="Слой_1" xmlns:xlink="http://www.w3.org/1999/xlink" viewBox="0 0 100 100">
  <defs>
    <path id="SVGID_1_" d="M14 14h71v72H14z"/>
  </defs>
  <clipPath id="SVGID_2_">
    <use xlink:href="#SVGID_1_" overflow="visible"/>
  </clipPath>
  <path d="M59.5 14H28L14 78.1h18.5L37 56.9h13.2c12.6 0 23.2-7.8 26.1-21.1 3.2-15-7.6-21.8-16.8-21.8zM45.7 44.6h-6l4-17.5h9.1c3.1 0 5.5 1.9 6.2 4.6-.4-.1-.8-.2-1.2-.2h-9.1l-3 13.1zm13.2-8.8c-1.1 4.8-5.6 8.6-10.2 8.7l2.2-9.6h8.2c-.1.3-.1.6-.2.9zm22.4 4.4c1.1-5 .6-9-.9-12.2 3 3.6 4.6 8.8 3.1 15.8-2.8 13.2-13.4 21-26 21H44.3L39.7 86H21.2l.8-3.5h15.5L42 61.3h13.2c12.7 0 23.3-7.8 26.1-21.1zm0 0" class="st0"/>
</svg>
